\relax 
\catcode`"\active
\providecommand\HyperFirstAtBeginDocument{\AtBeginDocument}
\HyperFirstAtBeginDocument{\ifx\hyper@anchor\@undefined
\global\let\oldcontentsline\contentsline
\gdef\contentsline#1#2#3#4{\oldcontentsline{#1}{#2}{#3}}
\global\let\oldnewlabel\newlabel
\gdef\newlabel#1#2{\newlabelxx{#1}#2}
\gdef\newlabelxx#1#2#3#4#5#6{\oldnewlabel{#1}{{#2}{#3}}}
\AtEndDocument{\ifx\hyper@anchor\@undefined
\let\contentsline\oldcontentsline
\let\newlabel\oldnewlabel
\fi}
\fi}
\global\let\hyper@last\relax 
\gdef\HyperFirstAtBeginDocument#1{#1}
\providecommand\HyField@AuxAddToFields[1]{}
\select@language{portuguese}
\@writefile{toc}{\select@language{portuguese}}
\@writefile{lof}{\select@language{portuguese}}
\@writefile{lot}{\select@language{portuguese}}
\@writefile{toc}{\contentsline {section}{\numberline {1}Introdu\IeC {\c c}\IeC {\~a}o}{3}{section.1}}
\@writefile{toc}{\contentsline {section}{\numberline {2}Compilar/Makefile}{4}{section.2}}
\@writefile{toc}{\contentsline {section}{\numberline {3}Esquema do protocolo desenvolvido}{5}{section.3}}
\@writefile{toc}{\contentsline {subsection}{\numberline {3.1}Cliente}{5}{subsection.3.1}}
\@writefile{toc}{\contentsline {subsubsection}{\numberline {3.1.1}Utilizadores (10X) - login e registo}{5}{subsubsection.3.1.1}}
\@writefile{toc}{\contentsline {subsubsection}{\numberline {3.1.2}Grupos (2XX)}{5}{subsubsection.3.1.2}}
\@writefile{toc}{\contentsline {subsubsection}{\numberline {3.1.3}Mensagens Privadas (3XX)}{5}{subsubsection.3.1.3}}
\@writefile{toc}{\contentsline {subsection}{\numberline {3.2}Servidor}{6}{subsection.3.2}}
\@writefile{toc}{\contentsline {subsubsection}{\numberline {3.2.1}Sucesso (4XX)}{6}{subsubsection.3.2.1}}
\@writefile{toc}{\contentsline {paragraph}{\numberline {3.2.1.1}Utilizadores (40X) - login e registo}{6}{paragraph.3.2.1.1}}
\@writefile{toc}{\contentsline {paragraph}{\numberline {3.2.1.2}Grupos (41X)}{6}{paragraph.3.2.1.2}}
\@writefile{toc}{\contentsline {subsubsection}{\numberline {3.2.2}Erro (5XX)}{6}{subsubsection.3.2.2}}
\@writefile{toc}{\contentsline {paragraph}{\numberline {3.2.2.1}Utilizadores (50X) - login e registo}{6}{paragraph.3.2.2.1}}
\@writefile{toc}{\contentsline {paragraph}{\numberline {3.2.2.2}Grupos (5[1-4]X)}{7}{paragraph.3.2.2.2}}
\@writefile{toc}{\contentsline {paragraph}{\numberline {3.2.2.3}Mensagens privadas (55X)}{7}{paragraph.3.2.2.3}}
\@writefile{toc}{\contentsline {subsection}{\numberline {3.3}Codifica\IeC {\c c}\IeC {\~a}o e justifica\IeC {\c c}\IeC {\~a}o}{8}{subsection.3.3}}
\@writefile{toc}{\contentsline {subsection}{\numberline {3.4}Esquema de funcionamento}{9}{subsection.3.4}}
\@writefile{toc}{\contentsline {section}{\numberline {4}Funcionamento}{13}{section.4}}
\@writefile{toc}{\contentsline {section}{\numberline {5}Conclus\IeC {\~a}o}{14}{section.5}}
\bibcite{url}{1}
\bibcite{proceeding}{2}
